{
    "success": true,
    "data": {
        "posts": [
            {
                "id": "69be701a-5fe3-4834-9503-89cb34477b9f",
                "title": "Dari Kelas ke Kesuksesan Luar Biasa Guru Ini",
                "content": "\n  <h2>Dari Kelas ke Kesuksesan Luar Biasa: Kisah Sukses Karier Guru yang Menginspirasi</h2>\n\n  <p>Bagi banyak orang, profesi guru seringkali dianggap sebagai karier yang \"konvensional\" dengan jalur yang sudah jelas: mengajar di kelas, membuat rencana pelajaran, dan menilai tugas siswa. Namun, kenyataannya, banyak guru yang berhasil <strong>melampaui batas kelas</strong> dan meraih kesuksesan luar biasa di bidang lain—sebagai pengusaha, penulis, youtuber, motivator, hingga konsultan pendidikan.</p>\n\n  <p>Jika Anda seorang pendidik yang merasa ingin <em>menjelajahi potensi lebih jauh</em> atau sedang mencari inspirasi untuk <strong>transformasi karier</strong>, artikel ini akan membahas <strong>kisah sukses karier guru</strong> yang membuktikan bahwa kemampuan mengajar bisa menjadi modal berharga di berbagai industri. Dari menuliskan buku best-seller hingga membangun bisnis pendidikan, mari kita telusuri bagaimana mereka melakukannya!</p>\n\n  <h3>Mengapa Guru Bisa Sukses di Luar Kelas?</h3>\n\n  <p>Sebelum membahas kisah-kisah inspiratif, penting untuk memahami <strong>mengapa guru memiliki potensi besar untuk sukses di luar profesi mengajar</strong>. Berikut alasan utamanya:</p>\n\n  <ul>\n    <li><strong>Kemampuan komunikasi yang tajam</strong>: Guru terbiasa menyampaikan informasi dengan jelas, baik secara lisan maupun tulisan—keterampilan yang sangat dibutuhkan di dunia bisnis, media, dan publik speaking.</li>\n    <li><strong>Kepemimpinan dan manajemen</strong>: Mengelola kelas sama dengan memimpin tim. Guru tahu cara memotivasi, mengorganisir, dan menyelesaikan konflik.</li>\n    <li><strong>Kreativitas dan inovasi</strong>: Merancang metode pembelajaran yang menarik membutuhkan kreativitas tinggi—sifat yang sangat berharga dalam kewirausahaan atau pengembangan konten.</li>\n    <li><strong>Jaringan yang luas</strong>: Interaksi dengan siswa, orang tua, dan rekan pendidik membuka peluang kolaborasi dan kesempatan baru.</li>\n    <li><strong>Pengetahuan mendalam tentang pendidikan</strong>: Pemahaman tentang sistem pendidikan membuat guru bisa mengidentifikasi celah pasar, seperti kebutuhan akan buku pelajaran yang lebih interaktif atau platform belajar online.</li>\n  </ul>\n\n  <p>Dengan modal-modal ini, tidak heran jika banyak guru yang berhasil <strong>bertransformasi menjadi profesional sukses di bidang lain</strong>. Berikut beberapa jalur karier alternatif yang bisa Anda pertimbangkan, beserta kisah nyata para guru yang telah membuktikannya.</p>\n\n  <h2>7 Jalur Karier Alternatif untuk Guru dan Kisah Suksesnya</h2>\n\n  <h3>1. Dari Guru ke Penulis: Menulis Buku yang Mengubah Hidup</h3>\n\n  <p><strong>Kisah sukses guru menjadi penulis</strong> mungkin adalah salah satu transformasi yang paling umum, tetapi tidak kalah mengesankan. Banyak guru yang memanfaatkan pengalaman mereka di kelas untuk menulis buku—baik fiksi, non-fiksi, atau buku panduan pendidikan—yang kemudian laris manis.</p>\n\n  <p><strong>Contoh nyata:</strong></p>\n  <ul>\n    <li><strong>J.K. Rowling</strong>, meskipun bukan guru di Indonesia, adalah contoh global bagaimana seorang pendidik (ia pernah mengajar bahasa Inggris) bisa menulis seri <em>Harry Potter</em> yang mengubah industri literatur dunia. Di tanah air, banyak guru yang menulis buku pelajaran atau buku motivasi yang menjadi best-seller, seperti <em>\"Guru Penggerak\"*</em> yang ditulis oleh seorang pendidik dan kini digunakan sebagai referensi di banyak sekolah.</li>\n    <li><strong>Pak Dedi, Guru SD dari Jawa Timur</strong>, awalnya hanya menulis cerita pendek untuk siswanya. Kini, ia telah menerbitkan 10 buku anak-anak yang dijual secara nasional dan bahkan diadaptasi menjadi materi pembelajaran interaktif.</li>\n  </ul>\n\n  <p><strong>Bagaimana memulainya?</strong></p>\n  <ul>\n    <li>Tulislah tentang topik yang Anda kuasai, seperti metode pembelajaran inovatif atau pengalaman mengajar yang menginspirasi.</li>\n    <li>Manfaatkan platform seperti <a href=\"https://tugasin.me\" rel=\"nofollow\" target=\"_blank\">Tugasin</a> untuk mencari inspirasi topik atau bahkan layanan editing jika Anda membutuhkan bantuan menyempurnakan naskah.</li>\n    <li>Publikasikan secara mandiri melalui penerbit digital atau ajukan ke penerbit tradisional.</li>\n  </ul>\n\n  <h3>2. Dari Guru ke Youtuber: Mengajar di Depan Layar, Bukan di Kelas</h3>\n\n  <p>Era digital membuka peluang besar bagi guru untuk <strong>beralih menjadi youtuber</strong>, baik sebagai kreator konten pendidikan maupun pembuat video motivasi. Platform seperti YouTube memungkinkan guru menjangkau jutaan siswa di seluruh dunia—tanpa terbatas ruang kelas.</p>\n\n  <p><strong>Contoh sukses:</strong></p>\n  <ul>\n    <li><strong>Bu Rina, Guru Matematika dari Bandung</strong>, memulai kanal YouTube untuk menjelaskan rumus matematika dengan cara yang menyenangkan. Dalam 2 tahun, kanalnya memiliki 500 ribu subscriber, dan ia kini menghasilkan pendapatan dari iklan, sponsorship, dan penjualan modul belajar digital.</li>\n    <li><strong>Pak Budi, Guru Sejarah</strong>, membuat konten \"Sejarah Indonesia dalam 5 Menit\" yang viral. Kini, ia sering diundang sebagai narasumber di acara TV dan podcast.</li>\n  </ul>\n\n  <p><strong>Tips untuk sukses:</strong></p>\n  <ul>\n    <li>Pilih niche yang spesifik, seperti \"Belajar Bahasa Inggris untuk Anak\" atau \"Tips Mengajar yang Menyenangkan\".</li>\n    <li>Gunakan peralatan sederhana tetapi pastikan kualitas audio dan video jelas.</li>\n    <li>Konsisten dalam mengupload dan berinteraksi dengan penonton.</li>\n  </ul>\n\n  <h3>3. Dari Guru ke Pengusaha: Membangun Bisnis dari Pengalaman Mengajar</h3>\n\n  <p><strong>Kisah sukses guru menjadi pengusaha</strong> menunjukkan bahwa pengalaman di kelas bisa menjadi fondasi kuat untuk membangun bisnis, terutama di bidang pendidikan. Mulai dari les privat, penerbitan buku, hingga platform belajar online, peluangnya sangat luas.</p>\n\n  <p><strong>Contoh inspiratif:</strong></p>\n  <ul>\n    <li><strong>Ibu Lina, Guru TK di Jakarta</strong>, melihat banyak orang tua kesulitan mencari mainan edukatif yang berkualitas. Ia lalu mendirikan toko online yang menjual alat peraga buatan sendiri. Bisnisnya kini memiliki 10 karyawan dan omset ratusan juta per bulan.</li>\n    <li><strong>Pak Agus, Guru Fisika</strong>, membuat aplikasi simulasi eksperimen sains yang bisa diakses via smartphone. Aplikasi ini kini digunakan oleh lebih dari 1.000 sekolah di Indonesia.</li>\n  </ul>\n\n  <p><strong>Langkah awal membangun bisnis:</strong></p>\n  <ul>\n    <li>Identifikasi masalah yang sering Anda temui di kelas (misal: kurangnya bahan ajar interaktif).</li>\n    <li>Lakukan riset pasar untuk memvalidasi ide bisnis Anda.</li>\n    <li>Mulai kecil, seperti menjual modul atau mengadakan workshop, sebelum skalanya diperbesar.</li>\n  </ul>\n\n  <p>Jika Anda tertarik dengan dunia kewirausahaan tetapi masih bingung memilih bidang, pertimbangkan untuk <a href=\"https://tugasin.me/blog/pendidikan/jurusan-kuliah-murah\" rel=\"nofollow\" target=\"_blank\">memilih program studi yang mendukung keterampilan bisnis</a>, seperti manajemen pendidikan atau teknologi pembelajaran.</p>\n\n  <h3>4. Dari Guru ke Motivator: Menginspirasi Ribuan Orang</h3>\n\n  <p>Guru adalah motivator alami—setiap hari mereka menginspirasi siswa untuk belajar dan berkembang. Tidak heran jika banyak guru yang berhasil <strong>bertransformasi menjadi motivator profesional</strong>, baik melalui seminar, buku, atau media sosial.</p>\n\n  <p><strong>Kisah sukses:</strong></p>\n  <ul>\n    <li><strong>Pak Joko, Guru SMP dari Yogyakarta</strong>, mulai berbagi cerita motivasi di akun Instagram-nya. Kini, ia menjadi pembicara di berbagai acara perusahaan dan sekolah, dengan honorarium jutaan rupiah per sesi.</li>\n    <li><strong>Bu Sari, Guru PAUD</strong>, fokus pada motivasi untuk orang tua dalam mendidik anak. Ia kini memiliki komunitas online dengan ribuan anggota dan mengadakan webinar bulanan.</li>\n  </ul>\n\n  <p><strong>Cara memulai:</strong></p>\n  <ul>\n    <li>Bangun personal branding di media sosial dengan konten yang konsisten.</li>\n    <li>Tawarkan sesi motivasi gratis terlebih dahulu untuk membangun portofolio.</li>\n    <li>Jalin kerjasama dengan sekolah atau perusahaan untuk mendapatkan pengalaman berbicara di depan umum.</li>\n  </ul>\n\n  <h3>5. Dari Guru ke Pembicara Publik: Berbicara di Depan Ribuan Pendengar</h3>\n\n  <p>Jika Anda nyaman berbicara di depan kelas, mengapa tidak mencoba menjadi <strong>pembicara publik</strong>? Banyak guru yang sukses beralih ke karier ini, terutama di bidang pendidikan, pengembangan diri, atau kepemimpinan.</p>\n\n  <p><strong>Contoh nyata:</strong></p>\n  <ul>\n    <li><strong>Pak Dedi, Guru Bahasa Inggris</strong>, mulai memberikan workshop tentang \"Cara Belajar Bahasa Inggris dengan Cepat\" di kampus-kampus. Kini, ia diundang sebagai pembicara di konferensi pendidikan internasional.</li>\n    <li><strong>Bu Tuti, Guru BK</strong>, spesialis dalam handling bullying di sekolah. Ia kini menjadi narasumber tetap di acara TV dan radio tentang parenting.</li>\n  </ul>\n\n  <p><strong>Strategi untuk sukses:</strong></p>\n  <ul>\n    <li>Kuasai satu topik spesifik yang Anda kuasai dengan baik.</li>\n    <li>Rekam video Anda saat berbicara (misal di kelas) dan gunakan sebagai portofolio.</li>\n    <li>Daftar di platform pencari pembicara atau tawarkan jasa Anda langsung ke event organizer.</li>\n  </ul>\n\n  <h3>6. Dari Guru ke Konsultan Pendidikan: Memberikan Solusi untuk Sekolah dan Institusi</h3>\n\n  <p>Pengalaman bertahun-tahun di kelas membuat guru memiliki wawasan mendalam tentang sistem pendidikan. Banyak yang kemudian beralih menjadi <strong>konsultan pendidikan</strong>, membantu sekolah atau pemerintah dalam meningkatkan kualitas pembelajaran.</p>\n\n  <p><strong>Kisah inspiratif:</strong></p>\n  <ul>\n    <li><strong>Pak Hadi, Mantan Kepala Sekolah</strong>, kini menjadi konsultan untuk sekolah-sekolah swasta dalam menerapkan kurikulum merdeka. Ia juga menulis modul pelatihan untuk guru.</li>\n    <li><strong>Bu Rina, Guru Inklusi</strong>, membantu sekolah-sekolah mengembangkan program untuk anak berkarya khusus. Layanan konsultasinya kini dicari oleh yayasannya di beberapa kota besar.</li>\n  </ul>\n\n  <p><strong>Bagaimana memulainya?</strong></p>\n  <ul>\n    <li>Dapatkan sertifikasi tambahan di bidang manajemen pendidikan atau kepemimpinan sekolah.</li>\n    <li>Tawarkan jasa konsultasi gratis untuk membangun reputasi.</li>\n    <li>Bergabung dengan asosiasi konsultan pendidikan untuk memperluas jaringan.</li>\n  </ul>\n\n  <p>Jika Anda tertarik dengan jalur ini, pertimbangkan untuk melanjutkan pendidikan ke jenjang yang lebih tinggi. Anda bisa menjelajahi <a href=\"https://tugasin.me/blog/pendidikan/universitas-jurusan-pendidikan\" rel=\"nofollow\" target=\"_blank\">universitas dengan jurusan pendidikan</a> yang menawarkan program magister atau doktor dengan fokus pada kepemimpinan pendidikan.</p>\n\n  <h3>7. Dari Guru ke Pengembang Kurikulum: Merancang Masa Depan Pendidikan</h3>\n\n  <p>Guru yang memahami kebutuhan siswa dan tren pendidikan bisa beralih menjadi <strong>pengembang kurikulum</strong>, baik untuk sekolah, penerbit buku, atau platform belajar online. Pekerjaan ini sangat dibutuhkan seiring dengan perkembangan teknologi dan metode pembelajaran baru.</p>\n\n  <p><strong>Contoh sukses:</strong></p>\n  <ul>\n    <li><strong>Pak Budi, Guru TIK</strong>, merancang kurikulum digital untuk sekolah menengah. Karyanya kini digunakan oleh lebih dari 50 sekolah di Jawa Tengah.</li>\n    <li><strong>Bu Ani, Guru PAUD</strong>, mengembangkan modul bermain sambil belajar yang diadopsi oleh Kementerian Pendidikan.</li>\n  </ul>\n\n  <p><strong>Langkah-langkah untuk memulai:</strong></p>\n  <ul>\n    <li>Pelajari standar kurikulum nasional dan internasional.</li>\n    <li>Buat portofolio berupa contoh modul atau rencana pembelajaran yang pernah Anda buat.</li>\n    <li>Tawarkan jasa Anda ke penerbit buku atau platform edukasi.</li>\n  </ul>\n\n  <h2>Tips Umum untuk Guru yang Ingin Bertransformasi Karier</h2>\n\n  <p>Jika Anda terinspirasi oleh <strong>kisah sukses karier guru</strong> di atas dan ingin memulai perjalanan serupa, berikut beberapa tips praktis:</p>\n\n  <ul>\n    <li><strong>Mulai dari yang kecil</strong>: Tidak perlu langsung resign dari pekerjaan sebagai guru. Mulailah dengan proyek sampingan, seperti menulis blog, membuat video, atau menjual produk edukasi.</li>\n    <li><strong>Manfaatkan jaringan</strong>: Rekan guru, alumni, dan orang tua siswa bisa menjadi klien atau mitra pertama Anda.</li>\n    <li><strong>Tingkatkan keterampilan baru</strong>: Ikuti pelatihan di bidang yang Anda minati, seperti digital marketing (untuk youtuber/pengusaha) atau public speaking (untuk motivator/pembicara).</li>\n    <li><strong>Bangkit dari kegagalan</strong>: Banyak guru sukses mengalami penolakan atau kegagalan di awal. Yang penting adalah konsistensi dan kemauan untuk belajar.</li>\n    <li><strong>Gunakan teknologi</strong>: Platform seperti <a href=\"https://tugasin.me\" rel=\"nofollow\" target=\"_blank\">Tugasin</a> bisa membantu Anda mencari sumber daya atau inspirasi untuk mengembangkan karier baru.</li>\n  </ul>\n\n  <h2>Kesimpulan: Kesuksesan Tidak Terbatas di Dalam Kelas</h2>\n\n  <p>Kisah-kisah di atas membuktikan bahwa <strong>kisah sukses karier guru</strong> tidak terbatas pada mengajar di kelas. Dengan kreativitas, ketekunan, dan kemauan untuk belajar hal baru, guru bisa meraih kesuksesan di berbagai bidang—sebagai penulis, youtuber, pengusaha, motivator, pembicara publik, konsultan pendidikan, atau pengembang kurikulum.</p>\n\n  <p>Yang terpenting adalah <strong>memulai</strong>. Tidak perlu menunggu sempurna—mulailah dari langkah kecil, seperti menulis satu artikel, merekam video pertama, atau menawarkan jasa konsultasi gratis. Siapa tahu, beberapa tahun ke depan, Anda bisa menjadi inspirasi bagi guru lain yang ingin melangkah keluar dari zona nyaman!</p>\n\n  <p>Jika Anda masih bingung memilih jalur karier alternatif, pertimbangkan untuk <a href=\"https://tugasin.me/blog/pendidikan/jurusan-di-ut-dan-biayanya\" rel=\"nofollow\" target=\"_blank\">mengeksplorasi program studi yang mendukung minat Anda</a>, baik di universitas konvensional maupun melalui pendidikan jarak jauh yang lebih fleksibel.</p>\n\n  <p><em>Ingat: Setiap guru memiliki potensi untuk menjadi lebih dari sekadar pengajar. Kesuksesan Anda dimulai dari keberanian untuk mencoba!</em></p>\n",
                "excerpt": "Temukan bagaimana guru-guru biasa meraih sukses besar sebagai penulis, youtuber, pengusaha, hingga motivator. Kisah sukses karier guru yang menginspirasi!",
                "slug": "kisah-sukses-karier-guru",
                "featuredImage": "https://syd.cloud.appwrite.io/v1/storage/buckets/68bc90e000120a53466f/files/68ef662861907f94362f/view?project=687cd909003a482a66b7&mode=admin",
                "publishDate": "2025-10-18T12:50:47.39",
                "status": "published",
                "authorId": "user_33QTHobngBl4hGcnuEjuKnOhlqr",
                "createdAt": "2025-10-18T05:50:48.612619",
                "updatedAt": "2025-10-18T05:50:48.612619",
                "seo": {
                    "title": "Dari Kelas ke Kesuksesan Luar Biasa Guru Ini",
                    "metaDescription": "Temukan bagaimana guru-guru biasa meraih sukses besar sebagai penulis, youtuber, pengusaha, hingga motivator. Kisah sukses karier guru yang menginspirasi!",
                    "focusKeyword": "Kisah Sukses Karier Guru",
                    "slug": "kisah-sukses-karier-guru"
                },
                "categories": [
                    {
                        "id": "aeb5e67a-fdef-4b9a-ad34-1fbccefe6a1a",
                        "name": "Karier dan Pengembangan Diri",
                        "slug": "karier-dan-pengembangan-diri",
                        "created_at": "2025-10-02T09:32:52.330635",
                        "description": null
                    },
                    {
                        "id": "266edbe8-1d0c-4d79-ade4-b1a8abb0acb2",
                        "name": "Pendidikan",
                        "slug": "pendidikan",
                        "created_at": "2025-10-09T19:18:07.301751",
                        "description": null
                    },
                    {
                        "id": "932aa24f-4a18-4b9c-9825-231d74aa32eb",
                        "name": "Inspirasi",
                        "slug": "inspirasi",
                        "created_at": "2025-10-13T18:51:43.053369",
                        "description": null
                    }
                ],
                "tags": [
                    {
                        "id": "ab52bab8-706d-443c-9db0-10829ccc9189",
                        "name": "Kisah Sukses Guru",
                        "slug": "kisah-sukses-guru",
                        "created_at": "2025-10-15T15:26:03.290534"
                    },
                    {
                        "id": "1dc23762-5261-4afd-9d3d-61a380475648",
                        "name": "Karier Alternatif Guru",
                        "slug": "karier-alternatif-guru",
                        "created_at": "2025-10-18T05:50:48.914701"
                    },
                    {
                        "id": "18091cbe-26d8-4799-8da5-dc9459860339",
                        "name": "Transformasi Profesional",
                        "slug": "transformasi-profesional",
                        "created_at": "2025-10-18T05:50:48.974779"
                    },
                    {
                        "id": "2219c191-0073-4c21-9556-d8bcc34eddc8",
                        "name": "Inspirasi Pendidik",
                        "slug": "inspirasi-pendidik",
                        "created_at": "2025-10-18T05:50:49.040526"
                    },
                    {
                        "id": "a20a5d28-39a1-4dd1-ab5f-a75a1af3e5d2",
                        "name": "Kesuksesan di Luar Kelas",
                        "slug": "kesuksesan-di-luar-kelas",
                        "created_at": "2025-10-18T05:50:49.103926"
                    }
                ]
            }
        ],
        "pagination": {
            "page": 1,
            "limit": 1,
            "total": 2299,
            "totalPages": 2299,
            "hasNextPage": true,
            "hasPrevPage": false
        },
        "filters": {
            "search": null,
            "category": null,
            "tag": null,
            "status": "published"
        }
    },
    "cached": false
}